High-frequency econometrics
…
library(forcats)

I use the following code to read in (general) Lobster files - change ticker, date, and level in the code snippet below.

files_available <- archive::archive("SAP_2022-01-01_2022-01-31_5.7z") |>
  mutate(
    ticker = gsub("(.*)_(.*)_342.*_(.*).csv", "\\1", path),
    date = gsub("(.*)_(.*)_342.*_(.*).csv", "\\2", path),
    level = gsub("(.*)_(.*)_342.*_(.*).csv", "\\3", path)
  )

files_available

# A tibble: 40 × 5
   path                                                 size date   ticker level
   <chr>                                               <int> <chr>  <chr>  <chr>
 1 SAP_2022-01-28_34200000_57600000_message_5.csv          0 2022-… SAP    5    
 2 SAP_2022-01-28_34200000_57600000_orderbook_5.csv        0 2022-… SAP    5    
 3 SAP_2022-01-03_34200000_57600000_message_5.csv   14902108 2022-… SAP    5    
 4 SAP_2022-01-03_34200000_57600000_orderbook_5.csv 38240040 2022-… SAP    5    
 5 SAP_2022-01-04_34200000_57600000_message_5.csv   13248413 2022-… SAP    5    
 6 SAP_2022-01-04_34200000_57600000_orderbook_5.csv 33881101 2022-… SAP    5    
 7 SAP_2022-01-05_34200000_57600000_message_5.csv   12234669 2022-… SAP    5    
 8 SAP_2022-01-05_34200000_57600000_orderbook_5.csv 31189574 2022-… SAP    5    
 9 SAP_2022-01-06_34200000_57600000_message_5.csv   17311993 2022-… SAP    5    
10 SAP_2022-01-06_34200000_57600000_orderbook_5.csv 44240752 2022-… SAP    5    
# ℹ 30 more rows
…
orderbook <- bind_cols(messages_raw, orderbook_raw)
orderbook

# A tibble: 316,379 × 26
   ts                   type order_id m_size m_price direction ask_price_1
   <dttm>              <dbl>    <dbl>  <dbl>   <dbl>     <dbl>       <dbl>
 1 2022-01-07 09:30:00     3 34351556    500    140.        -1        140.
 2 2022-01-07 09:30:00     1 34456580    177    140.         1        140.
 3 2022-01-07 09:30:00     3 34390184    100    140.        -1        140.
 4 2022-01-07 09:30:00     1 34457908    160    140.        -1        140.
 5 2022-01-07 09:30:00     3 34302936    100    140.         1        140.
 6 2022-01-07 09:30:00     1 34458304    192    140.        -1        140.
 7 2022-01-07 09:30:00     3 34457908    160    140.        -1        140.
 8 2022-01-07 09:30:00     1 34463304    100    140.        -1        140.
 9 2022-01-07 09:30:00     2 34458304     57    140.        -1        140.
10 2022-01-07 09:30:00     2 34458304     29    140.        -1        140.
# ℹ 316,369 more rows
# ℹ 19 more variables: ask_size_1 <dbl>, bid_price_1 <dbl>, bid_size_1 <dbl>,
#   ask_price_2 <dbl>, ask_size_2 <dbl>, bid_price_2 <dbl>, bid_size_2 <dbl>,
#   ask_price_3 <dbl>, ask_size_3 <dbl>, bid_price_3 <dbl>, bid_size_3 <dbl>,
#   ask_price_4 <dbl>, ask_size_4 <dbl>, bid_price_4 <dbl>, bid_size_4 <dbl>,
#   ask_price_5 <dbl>, ask_size_5 <dbl>, bid_price_5 <dbl>, bid_size_5 <dbl>
…
